simulation/qsim/cLock.msim.vcd
$comment
	File created using the following command:
		vcd file cLock.msim.vcd -direction
$end
$date
	Fri Nov 10 13:36:18 2017
$end
$version
	ModelSim Version 10.5b
$end
$timescale
	1ps
$end

$scope module clkDev_vlg_vec_tst $end
$var reg 1 ! clk $end
$var wire 1 " divClk $end

$scope module i1 $end
$var wire 1 # gnd $end
$var wire 1 $ vcc $end
$var wire 1 % unknown $end
$var tri1 1 & devclrn $end
$var tri1 1 ' devpor $end
$var tri1 1 ( devoe $end
$var wire 1 ) divClk~output_o $end
$var wire 1 * clk~input_o $end
$var wire 1 + clk~inputclkctrl_outclk $end
$var wire 1 , q[0]~18_combout $end
$var wire 1 - q[3]~25 $end
$var wire 1 . q[4]~26_combout $end
$var wire 1 / q[4]~27 $end
$var wire 1 0 q[5]~28_combout $end
$var wire 1 1 q[5]~29 $end
$var wire 1 2 q[6]~30_combout $end
$var wire 1 3 q[6]~31 $end
$var wire 1 4 q[7]~32_combout $end
$var wire 1 5 q[7]~33 $end
$var wire 1 6 q[8]~34_combout $end
$var wire 1 7 q[8]~35 $end
$var wire 1 8 q[9]~36_combout $end
$var wire 1 9 q[9]~37 $end
$var wire 1 : q[10]~38_combout $end
$var wire 1 ; q[10]~39 $end
$var wire 1 < q[11]~40_combout $end
$var wire 1 = q[11]~41 $end
$var wire 1 > q[12]~42_combout $end
$var wire 1 ? q[12]~43 $end
$var wire 1 @ q[13]~44_combout $end
$var wire 1 A q[13]~45 $end
$var wire 1 B q[14]~46_combout $end
$var wire 1 C q[14]~47 $end
$var wire 1 D q[15]~48_combout $end
$var wire 1 E q[15]~49 $end
$var wire 1 F q[16]~50_combout $end
$var wire 1 G q[16]~51 $end
$var wire 1 H q[17]~52_combout $end
$var wire 1 I LessThan1~1_combout $end
$var wire 1 J LessThan1~3_combout $end
$var wire 1 K LessThan1~2_combout $end
$var wire 1 L LessThan1~4_combout $end
$var wire 1 M LessThan0~0_combout $end
$var wire 1 N q[0]~19 $end
$var wire 1 O q[1]~20_combout $end
$var wire 1 P q[1]~21 $end
$var wire 1 Q q[2]~22_combout $end
$var wire 1 R q[2]~23 $end
$var wire 1 S q[3]~24_combout $end
$var wire 1 T LessThan1~0_combout $end
$var wire 1 U LessThan1~5_combout $end
$var wire 1 V divClk~reg0_q $end
$var wire 1 W q [17] $end
$var wire 1 X q [16] $end
$var wire 1 Y q [15] $end
$var wire 1 Z q [14] $end
$var wire 1 [ q [13] $end
$var wire 1 \ q [12] $end
$var wire 1 ] q [11] $end
$var wire 1 ^ q [10] $end
$var wire 1 _ q [9] $end
$var wire 1 ` q [8] $end
$var wire 1 a q [7] $end
$var wire 1 b q [6] $end
$var wire 1 c q [5] $end
$var wire 1 d q [4] $end
$var wire 1 e q [3] $end
$var wire 1 f q [2] $end
$var wire 1 g q [1] $end
$var wire 1 h q [0] $end
$upscope $end
$upscope $end
$enddefinitions $end
#0
$dumpvars
0!
0"
0#
1$
x%
1&
1'
1(
0)
0*
0+
1,
1-
0.
0/
00
11
02
03
04
15
06
07
08
19
0:
0;
0<
1=
0>
0?
0@
1A
0B
0C
0D
1E
0F
0G
0H
1I
1J
1K
1L
0M
0N
0O
1P
0Q
0R
0S
0T
0U
0V
0h
0g
0f
0e
0d
0c
0b
0a
0`
0_
0^
0]
0\
0[
0Z
0Y
0X
0W
$end
#5000
1!
1*
1+
1h
1N
0,
1O
#10000
0!
0*
0+
#15000
1!
1*
1+
1g
0h
0P
0N
0O
1,
1P
1Q
1O
0Q
#20000
0!
0*
0+
#25000
1!
1*
1+
1h
1N
0,
0P
0O
1Q
#30000
0!
0*
0+
#35000
1!
1*
1+
1f
0g
0h
1R
1P
0N
0Q
1O
1,
0R
1S
1Q
0O
0S
#40000
0!
0*
0+
#45000
1!
1*
1+
1h
1N
0,
1O
#50000
0!
0*
0+
#55000
1!
1*
1+
1g
0h
0P
0N
0O
1,
1R
1P
0Q
1O
0R
1S
1Q
0S
#60000
0!
0*
0+
#65000
1!
1*
1+
1h
1N
0,
0P
0O
1R
0Q
1S
#70000
0!
0*
0+
#75000
1!
1*
1+
1e
0f
0g
0h
0-
0R
1P
0N
0S
1Q
1O
1,
1-
1.
1S
0Q
0O
0.
#80000
0!
0*
0+
#85000
1!
1*
1+
1h
1N
0,
1O
#90000
0!
0*
0+
#95000
1!
1*
1+
1g
0h
1T
0P
0N
0O
1,
1P
1U
1Q
1O
0Q
#100000
0!
0*
0+
#105000
1!
1*
1+
1h
1V
1)
1N
1"
0,
0P
0O
1Q
#110000
0!
0*
0+
#115000
1!
1*
1+
1f
0g
0h
1R
1P
0N
0Q
1O
1,
0-
0R
0S
1Q
0O
1-
1.
1S
0.
#120000
0!
0*
0+
#125000
1!
1*
1+
1h
1N
0,
1O
#130000
0!
0*
0+
#135000
1!
1*
1+
1g
0h
0P
0N
0O
1,
1R
1P
0Q
1O
0-
0R
0S
1Q
1-
1.
1S
0.
#140000
0!
0*
0+
#145000
1!
1*
1+
1h
1N
0,
0P
0O
1R
0Q
0-
0S
1.
#150000
0!
0*
0+
#155000
1!
1*
1+
0e
0f
0g
0h
1d
1-
0R
1P
0N
1/
1S
1Q
1O
1,
0.
0/
1.
0S
0Q
0O
10
00
#160000
0!
0*
0+
#165000
1!
1*
1+
1h
1N
0,
1O
#170000
0!
0*
0+
#175000
1!
1*
1+
1g
0h
0P
0N
0O
1,
1P
1Q
1O
0Q
#180000
0!
0*
0+
#185000
1!
1*
1+
1h
1N
0,
0P
0O
1Q
#190000
0!
0*
0+
#195000
1!
1*
1+
1f
0g
0h
1R
1M
1P
0N
0Q
1O
1,
0R
1S
1Q
0O
0S
#200000
0!
0*
0+
#205000
1!
1*
1+
0f
0d
0T
0M
0Q
0.
0U
#210000
0!
0*
0+
#215000
1!
1*
1+
1h
0V
0)
1N
0"
0,
1O
#220000
0!
0*
0+
#225000
1!
1*
1+
1g
0h
0P
0N
0O
1,
1P
1Q
1O
0Q
#230000
0!
0*
0+
#235000
1!
1*
1+
1h
1N
0,
0P
0O
1Q
#240000
0!
0*
0+
#245000
1!
1*
1+
1f
0g
0h
1R
1P
0N
0Q
1O
1,
0R
1S
1Q
0O
0S
#250000
0!
0*
0+
#255000
1!
1*
1+
1h
1N
0,
1O
#260000
0!
0*
0+
#265000
1!
1*
1+
1g
0h
0P
0N
0O
1,
1R
1P
0Q
1O
0R
1S
1Q
0S
#270000
0!
0*
0+
#275000
1!
1*
1+
1h
1N
0,
0P
0O
1R
0Q
1S
#280000
0!
0*
0+
#285000
1!
1*
1+
1e
0f
0g
0h
0-
0R
1P
0N
0S
1Q
1O
1,
1-
1.
1S
0Q
0O
0.
#290000
0!
0*
0+
#295000
1!
1*
1+
1h
1N
0,
1O
#300000
0!
0*
0+
#305000
1!
1*
1+
1g
0h
1T
0P
0N
0O
1,
1P
1U
1Q
1O
0Q
#310000
0!
0*
0+
#315000
1!
1*
1+
1h
1V
1)
1N
1"
0,
0P
0O
1Q
#320000
0!
0*
0+
#325000
1!
1*
1+
1f
0g
0h
1R
1P
0N
0Q
1O
1,
0-
0R
0S
1Q
0O
1-
1.
1S
0.
#330000
0!
0*
0+
#335000
1!
1*
1+
1h
1N
0,
1O
#340000
0!
0*
0+
#345000
1!
1*
1+
1g
0h
0P
0N
0O
1,
1R
1P
0Q
1O
0-
0R
0S
1Q
1-
1.
1S
0.
#350000
0!
0*
0+
#355000
1!
1*
1+
1h
1N
0,
0P
0O
1R
0Q
0-
0S
1.
#360000
0!
0*
0+
#365000
1!
1*
1+
0e
0f
0g
0h
1d
1-
0R
1P
0N
1/
1S
1Q
1O
1,
0.
0/
1.
0S
0Q
0O
10
00
#370000
0!
0*
0+
#375000
1!
1*
1+
1h
1N
0,
1O
#380000
0!
0*
0+
#385000
1!
1*
1+
1g
0h
0P
0N
0O
1,
1P
1Q
1O
0Q
#390000
0!
0*
0+
#395000
1!
1*
1+
1h
1N
0,
0P
0O
1Q
#400000
0!
0*
0+
#405000
1!
1*
1+
1f
0g
0h
1R
1M
1P
0N
0Q
1O
1,
0R
1S
1Q
0O
0S
#410000
0!
0*
0+
#415000
1!
1*
1+
0f
0d
0T
0M
0Q
0.
0U
#420000
0!
0*
0+
#425000
1!
1*
1+
1h
0V
0)
1N
0"
0,
1O
#430000
0!
0*
0+
#435000
1!
1*
1+
1g
0h
0P
0N
0O
1,
1P
1Q
1O
0Q
#440000
0!
0*
0+
#445000
1!
1*
1+
1h
1N
0,
0P
0O
1Q
#450000
0!
0*
0+
#455000
1!
1*
1+
1f
0g
0h
1R
1P
0N
0Q
1O
1,
0R
1S
1Q
0O
0S
#460000
0!
0*
0+
#465000
1!
1*
1+
1h
1N
0,
1O
#470000
0!
0*
0+
#475000
1!
1*
1+
1g
0h
0P
0N
0O
1,
1R
1P
0Q
1O
0R
1S
1Q
0S
#480000
0!
0*
0+
#485000
1!
1*
1+
1h
1N
0,
0P
0O
1R
0Q
1S
#490000
0!
0*
0+
#495000
1!
1*
1+
1e
0f
0g
0h
0-
0R
1P
0N
0S
1Q
1O
1,
1-
1.
1S
0Q
0O
0.
#500000
0!
0*
0+
#505000
1!
1*
1+
1h
1N
0,
1O
#510000
0!
0*
0+
#515000
1!
1*
1+
1g
0h
1T
0P
0N
0O
1,
1P
1U
1Q
1O
0Q
#520000
0!
0*
0+
#525000
1!
1*
1+
1h
1V
1)
1N
1"
0,
0P
0O
1Q
#530000
0!
0*
0+
#535000
1!
1*
1+
1f
0g
0h
1R
1P
0N
0Q
1O
1,
0-
0R
0S
1Q
0O
1-
1.
1S
0.
#540000
0!
0*
0+
#545000
1!
1*
1+
1h
1N
0,
1O
#550000
0!
0*
0+
#555000
1!
1*
1+
1g
0h
0P
0N
0O
1,
1R
1P
0Q
1O
0-
0R
0S
1Q
1-
1.
1S
0.
#560000
0!
0*
0+
#565000
1!
1*
1+
1h
1N
0,
0P
0O
1R
0Q
0-
0S
1.
#570000
0!
0*
0+
#575000
1!
1*
1+
0e
0f
0g
0h
1d
1-
0R
1P
0N
1/
1S
1Q
1O
1,
0.
0/
1.
0S
0Q
0O
10
00
#580000
0!
0*
0+
#585000
1!
1*
1+
1h
1N
0,
1O
#590000
0!
0*
0+
#595000
1!
1*
1+
1g
0h
0P
0N
0O
1,
1P
1Q
1O
0Q
#600000
0!
0*
0+
#605000
1!
1*
1+
1h
1N
0,
0P
0O
1Q
#610000
0!
0*
0+
#615000
1!
1*
1+
1f
0g
0h
1R
1M
1P
0N
0Q
1O
1,
0R
1S
1Q
0O
0S
#620000
0!
0*
0+
#625000
1!
1*
1+
0f
0d
0T
0M
0Q
0.
0U
#630000
0!
0*
0+
#635000
1!
1*
1+
1h
0V
0)
1N
0"
0,
1O
#640000
0!
0*
0+
#645000
1!
1*
1+
1g
0h
0P
0N
0O
1,
1P
1Q
1O
0Q
#650000
0!
0*
0+
#655000
1!
1*
1+
1h
1N
0,
0P
0O
1Q
#660000
0!
0*
0+
#665000
1!
1*
1+
1f
0g
0h
1R
1P
0N
0Q
1O
1,
0R
1S
1Q
0O
0S
#670000
0!
0*
0+
#675000
1!
1*
1+
1h
1N
0,
1O
#680000
0!
0*
0+
#685000
1!
1*
1+
1g
0h
0P
0N
0O
1,
1R
1P
0Q
1O
0R
1S
1Q
0S
#690000
0!
0*
0+
#695000
1!
1*
1+
1h
1N
0,
0P
0O
1R
0Q
1S
#700000
0!
0*
0+
#705000
1!
1*
1+
1e
0f
0g
0h
0-
0R
1P
0N
0S
1Q
1O
1,
1-
1.
1S
0Q
0O
0.
#710000
0!
0*
0+
#715000
1!
1*
1+
1h
1N
0,
1O
#720000
0!
0*
0+
#725000
1!
1*
1+
1g
0h
1T
0P
0N
0O
1,
1P
1U
1Q
1O
0Q
#730000
0!
0*
0+
#735000
1!
1*
1+
1h
1V
1)
1N
1"
0,
0P
0O
1Q
#740000
0!
0*
0+
#745000
1!
1*
1+
1f
0g
0h
1R
1P
0N
0Q
1O
1,
0-
0R
0S
1Q
0O
1-
1.
1S
0.
#750000
0!
0*
0+
#755000
1!
1*
1+
1h
1N
0,
1O
#760000
0!
0*
0+
#765000
1!
1*
1+
1g
0h
0P
0N
0O
1,
1R
1P
0Q
1O
0-
0R
0S
1Q
1-
1.
1S
0.
#770000
0!
0*
0+
#775000
1!
1*
1+
1h
1N
0,
0P
0O
1R
0Q
0-
0S
1.
#780000
0!
0*
0+
#785000
1!
1*
1+
0e
0f
0g
0h
1d
1-
0R
1P
0N
1/
1S
1Q
1O
1,
0.
0/
1.
0S
0Q
0O
10
00
#790000
0!
0*
0+
#795000
1!
1*
1+
1h
1N
0,
1O
#800000
0!
0*
0+
#805000
1!
1*
1+
1g
0h
0P
0N
0O
1,
1P
1Q
1O
0Q
#810000
0!
0*
0+
#815000
1!
1*
1+
1h
1N
0,
0P
0O
1Q
#820000
0!
0*
0+
#825000
1!
1*
1+
1f
0g
0h
1R
1M
1P
0N
0Q
1O
1,
0R
1S
1Q
0O
0S
#830000
0!
0*
0+
#835000
1!
1*
1+
0f
0d
0T
0M
0Q
0.
0U
#840000
0!
0*
0+
#845000
1!
1*
1+
1h
0V
0)
1N
0"
0,
1O
#850000
0!
0*
0+
#855000
1!
1*
1+
1g
0h
0P
0N
0O
1,
1P
1Q
1O
0Q
#860000
0!
0*
0+
#865000
1!
1*
1+
1h
1N
0,
0P
0O
1Q
#870000
0!
0*
0+
#875000
1!
1*
1+
1f
0g
0h
1R
1P
0N
0Q
1O
1,
0R
1S
1Q
0O
0S
#880000
0!
0*
0+
#885000
1!
1*
1+
1h
1N
0,
1O
#890000
0!
0*
0+
#895000
1!
1*
1+
1g
0h
0P
0N
0O
1,
1R
1P
0Q
1O
0R
1S
1Q
0S
#900000
0!
0*
0+
#905000
1!
1*
1+
1h
1N
0,
0P
0O
1R
0Q
1S
#910000
0!
0*
0+
#915000
1!
1*
1+
1e
0f
0g
0h
0-
0R
1P
0N
0S
1Q
1O
1,
1-
1.
1S
0Q
0O
0.
#920000
0!
0*
0+
#925000
1!
1*
1+
1h
1N
0,
1O
#930000
0!
0*
0+
#935000
1!
1*
1+
1g
0h
1T
0P
0N
0O
1,
1P
1U
1Q
1O
0Q
#940000
0!
0*
0+
#945000
1!
1*
1+
1h
1V
1)
1N
1"
0,
0P
0O
1Q
#950000
0!
0*
0+
#955000
1!
1*
1+
1f
0g
0h
1R
1P
0N
0Q
1O
1,
0-
0R
0S
1Q
0O
1-
1.
1S
0.
#960000
0!
0*
0+
#965000
1!
1*
1+
1h
1N
0,
1O
#970000
0!
0*
0+
#975000
1!
1*
1+
1g
0h
0P
0N
0O
1,
1R
1P
0Q
1O
0-
0R
0S
1Q
1-
1.
1S
0.
#980000
0!
0*
0+
#985000
1!
1*
1+
1h
1N
0,
0P
0O
1R
0Q
0-
0S
1.
#990000
0!
0*
0+
#995000
1!
1*
1+
0e
0f
0g
0h
1d
1-
0R
1P
0N
1/
1S
1Q
1O
1,
0.
0/
1.
0S
0Q
0O
10
00
